{
  "rerollCost": 50000,
  "positions": {
    "dwarfBlockerLineman": {
      "maxNumber": 12,
      "cost": 70000,
      "characteristics": {
        "movement": 4,
        "strength": 3,
        "agility": "4+",
        "pass": "5+",
        "armour": "10+"
      },
      "defaultSkills": [
        "block",
        "tackle",
        "thickSkull"
      ],
      "primarySkillCategories": [
        "general",
        "strength"
      ],
      "secondarySkillCategories": [
        "agility"
      ]
    },
    "runner": {
      "maxNumber": 2,
      "cost": 85000,
      "characteristics": {
        "movement": 6,
        "strength": 3,
        "agility": "3+",
        "pass": "4+",
        "armour": "9+"
      },
      "defaultSkills": [
        "sureHands",
        "thickSkull"
      ],
      "primarySkillCategories": [
        "general",
        "passing"
      ],
      "secondarySkillCategories": [
        "agility",
        "strength"
      ]
    },
    "blitzer": {
      "maxNumber": 2,
      "cost": 80000,
      "characteristics": {
        "movement": 5,
        "strength": 3,
        "agility": "3+",
        "pass": "4+",
        "armour": "10+"
      },
      "defaultSkills": [
        "block",
        "thickSkull"
      ],
      "primarySkillCategories": [
        "general",
        "strength"
      ],
      "secondarySkillCategories": [
        "agility",
        "passing"
      ]
    },
    "trollSlayer": {
      "maxNumber": 2,
      "cost": 95000,
      "characteristics": {
        "movement": 5,
        "strength": 3,
        "agility": "4+",
        "pass": "-",
        "armour": "9+"
      },
      "defaultSkills": [
        "block",
        "dauntless",
        "frenzy",
        "thickSkull"
      ],
      "primarySkillCategories": [
        "general",
        "strength"
      ],
      "secondarySkillCategories": [
        "agility"
      ]
    },
    "deathRoller": {
      "maxNumber": 1,
      "cost": 170000,
      "characteristics": {
        "movement": 4,
        "strength": 7,
        "agility": "5+",
        "pass": "-",
        "armour": "11+"
      },
      "defaultSkills": [
        "breakTackle",
        "dirtyPlayer",
        "juggernaut",
        "loner",
        "mightyBlow",
        "noHands",
        "secretWeapon",
        "standFirm"
      ],
      "primarySkillCategories": [
        "strength"
      ],
      "secondarySkillCategories": [
        "agility",
        "general"
      ]
    }
  }
}
